// Jest Snapshot v1, https://goo.gl/fbAQLP

exports[`Sider input area can be used 1`] = `
<Input
  type="text"
>
  <ClearableLabeledInput
    element={
      <input
        className="ant-input"
        onBlur={[Function]}
        onChange={[Function]}
        onFocus={[Function]}
        onKeyDown={[Function]}
        type="text"
      />
    }
    focused={false}
    handleReset={[Function]}
    inputType="input"
    prefixCls="ant-input"
    triggerFocus={[Function]}
    type="text"
    value=""
  >
    <input
      className="ant-input"
      onBlur={[Function]}
      onChange={[Function]}
      onFocus={[Function]}
      onKeyDown={[Function]}
      type="text"
      value=""
    />
  </ClearableLabeledInput>
</Input>
`;

exports[`Sider renders title 1`] = `
<h2>
  Pencapaian
</h2>
`;
